%YAML 1.1
%TAG !u! tag:unity3d.com,2011:
--- !u!114 &11400000
MonoBehaviour:
  m_ObjectHideFlags: 0
  m_CorrespondingSourceObject: {fileID: 0}
  m_PrefabInstance: {fileID: 0}
  m_PrefabAsset: {fileID: 0}
  m_GameObject: {fileID: 0}
  m_Enabled: 1
  m_EditorHideFlags: 0
  m_Script: {fileID: 11500000, guid: 3324d5c83ae8f32479e0d1a8c82a8cdf, type: 3}
  m_Name: BreadSO
  m_EditorClassIdentifier: 
  prefab: {fileID: 3812876574508226176, guid: bc49891f572f1164e9938f845ec37ab0, type: 3}
  sprite: {fileID: 21300000, guid: 77b28124b8bda494381c80bd5aa42c22, type: 3}
  objectName: Bread
