%YAML 1.1
%TAG !u! tag:unity3d.com,2011:
--- !u!1001 &5084795334058483711
PrefabInstance:
  m_ObjectHideFlags: 0
  serializedVersion: 2
  m_Modification:
    serializedVersion: 2
    m_TransformParent: {fileID: 0}
    m_Modifications:
    - target: {fileID: 5100948126617679503, guid: 7acb60eb7b35f124eb29feaddc15bf0c, type: 3}
      propertyPath: _kitchenObjSO
      value: 
      objectReference: {fileID: 11400000, guid: 0a8af6db36608ee48ba7469ab37783d8, type: 2}
    - target: {fileID: 5909201185686121758, guid: 7acb60eb7b35f124eb29feaddc15bf0c, type: 3}
      propertyPath: m_Sprite
      value: 
      objectReference: {fileID: 21300000, guid: 77b28124b8bda494381c80bd5aa42c22, type: 3}
    - target: {fileID: 6413309570586542804, guid: 7acb60eb7b35f124eb29feaddc15bf0c, type: 3}
      propertyPath: m_Name
      value: ContainerCounter_Bread
      objectReference: {fileID: 0}
    - target: {fileID: 6413309570586542805, guid: 7acb60eb7b35f124eb29feaddc15bf0c, type: 3}
      propertyPath: m_RootOrder
      value: 0
      objectReference: {fileID: 0}
    - target: {fileID: 6413309570586542805, guid: 7acb60eb7b35f124eb29feaddc15bf0c, type: 3}
      propertyPath: m_LocalPosition.x
      value: 0
      objectReference: {fileID: 0}
    - target: {fileID: 6413309570586542805, guid: 7acb60eb7b35f124eb29feaddc15bf0c, type: 3}
      propertyPath: m_LocalPosition.y
      value: 0
      objectReference: {fileID: 0}
    - target: {fileID: 6413309570586542805, guid: 7acb60eb7b35f124eb29feaddc15bf0c, type: 3}
      propertyPath: m_LocalPosition.z
      value: 0
      objectReference: {fileID: 0}
    - target: {fileID: 6413309570586542805, guid: 7acb60eb7b35f124eb29feaddc15bf0c, type: 3}
      propertyPath: m_LocalRotation.w
      value: 0
      objectReference: {fileID: 0}
    - target: {fileID: 6413309570586542805, guid: 7acb60eb7b35f124eb29feaddc15bf0c, type: 3}
      propertyPath: m_LocalRotation.x
      value: 0
      objectReference: {fileID: 0}
    - target: {fileID: 6413309570586542805, guid: 7acb60eb7b35f124eb29feaddc15bf0c, type: 3}
      propertyPath: m_LocalRotation.y
      value: 1
      objectReference: {fileID: 0}
    - target: {fileID: 6413309570586542805, guid: 7acb60eb7b35f124eb29feaddc15bf0c, type: 3}
      propertyPath: m_LocalRotation.z
      value: 0
      objectReference: {fileID: 0}
    - target: {fileID: 6413309570586542805, guid: 7acb60eb7b35f124eb29feaddc15bf0c, type: 3}
      propertyPath: m_LocalEulerAnglesHint.x
      value: 0
      objectReference: {fileID: 0}
    - target: {fileID: 6413309570586542805, guid: 7acb60eb7b35f124eb29feaddc15bf0c, type: 3}
      propertyPath: m_LocalEulerAnglesHint.y
      value: 180
      objectReference: {fileID: 0}
    - target: {fileID: 6413309570586542805, guid: 7acb60eb7b35f124eb29feaddc15bf0c, type: 3}
      propertyPath: m_LocalEulerAnglesHint.z
      value: 0
      objectReference: {fileID: 0}
    - target: {fileID: 6971531626855491564, guid: 7acb60eb7b35f124eb29feaddc15bf0c, type: 3}
      propertyPath: m_Sprite
      value: 
      objectReference: {fileID: 21300000, guid: 77b28124b8bda494381c80bd5aa42c22, type: 3}
    m_RemovedComponents: []
    m_AddedGameObjects: []
  m_SourcePrefab: {fileID: 100100000, guid: 7acb60eb7b35f124eb29feaddc15bf0c, type: 3}
