%YAML 1.1
%TAG !u! tag:unity3d.com,2011:
--- !u!1001 &9007881020846374182
PrefabInstance:
  m_ObjectHideFlags: 0
  serializedVersion: 2
  m_Modification:
    serializedVersion: 2
    m_TransformParent: {fileID: 0}
    m_Modifications:
    - target: {fileID: 332703903569010848, guid: f34dc6a6302b4f142821969e2db2f536, type: 3}
      propertyPath: _kitchenObjSO
      value: 
      objectReference: {fileID: 11400000, guid: 4514f8e4eb27d434ea0c7787e764894e, type: 2}
    - target: {fileID: 1176994281307716401, guid: f34dc6a6302b4f142821969e2db2f536, type: 3}
      propertyPath: m_Sprite
      value: 
      objectReference: {fileID: 21300000, guid: e1c23b5aded59d84da30738d3267a6c9, type: 3}
    - target: {fileID: 1969359641159455994, guid: f34dc6a6302b4f142821969e2db2f536, type: 3}
      propertyPath: m_RootOrder
      value: 0
      objectReference: {fileID: 0}
    - target: {fileID: 1969359641159455994, guid: f34dc6a6302b4f142821969e2db2f536, type: 3}
      propertyPath: m_LocalPosition.x
      value: 0
      objectReference: {fileID: 0}
    - target: {fileID: 1969359641159455994, guid: f34dc6a6302b4f142821969e2db2f536, type: 3}
      propertyPath: m_LocalPosition.y
      value: 0
      objectReference: {fileID: 0}
    - target: {fileID: 1969359641159455994, guid: f34dc6a6302b4f142821969e2db2f536, type: 3}
      propertyPath: m_LocalPosition.z
      value: 0
      objectReference: {fileID: 0}
    - target: {fileID: 1969359641159455994, guid: f34dc6a6302b4f142821969e2db2f536, type: 3}
      propertyPath: m_LocalRotation.w
      value: 0
      objectReference: {fileID: 0}
    - target: {fileID: 1969359641159455994, guid: f34dc6a6302b4f142821969e2db2f536, type: 3}
      propertyPath: m_LocalRotation.x
      value: 0
      objectReference: {fileID: 0}
    - target: {fileID: 1969359641159455994, guid: f34dc6a6302b4f142821969e2db2f536, type: 3}
      propertyPath: m_LocalRotation.y
      value: 1
      objectReference: {fileID: 0}
    - target: {fileID: 1969359641159455994, guid: f34dc6a6302b4f142821969e2db2f536, type: 3}
      propertyPath: m_LocalRotation.z
      value: 0
      objectReference: {fileID: 0}
    - target: {fileID: 1969359641159455994, guid: f34dc6a6302b4f142821969e2db2f536, type: 3}
      propertyPath: m_LocalEulerAnglesHint.x
      value: 0
      objectReference: {fileID: 0}
    - target: {fileID: 1969359641159455994, guid: f34dc6a6302b4f142821969e2db2f536, type: 3}
      propertyPath: m_LocalEulerAnglesHint.y
      value: 180
      objectReference: {fileID: 0}
    - target: {fileID: 1969359641159455994, guid: f34dc6a6302b4f142821969e2db2f536, type: 3}
      propertyPath: m_LocalEulerAnglesHint.z
      value: 0
      objectReference: {fileID: 0}
    - target: {fileID: 1969359641159455995, guid: f34dc6a6302b4f142821969e2db2f536, type: 3}
      propertyPath: m_Name
      value: ContainerCounter_Cabbage
      objectReference: {fileID: 0}
    - target: {fileID: 2516366674467172803, guid: f34dc6a6302b4f142821969e2db2f536, type: 3}
      propertyPath: m_Sprite
      value: 
      objectReference: {fileID: 21300000, guid: e1c23b5aded59d84da30738d3267a6c9, type: 3}
    m_RemovedComponents: []
    m_AddedGameObjects: []
  m_SourcePrefab: {fileID: 100100000, guid: f34dc6a6302b4f142821969e2db2f536, type: 3}
