%YAML 1.1
%TAG !u! tag:unity3d.com,2011:
--- !u!1 &3812876574508226177
GameObject:
  m_ObjectHideFlags: 0
  m_CorrespondingSourceObject: {fileID: 0}
  m_PrefabInstance: {fileID: 0}
  m_PrefabAsset: {fileID: 0}
  serializedVersion: 6
  m_Component:
  - component: {fileID: 3812876574508226176}
  - component: {fileID: -460253711261700267}
  m_Layer: 0
  m_Name: Cabbage
  m_TagString: Untagged
  m_Icon: {fileID: 0}
  m_NavMeshLayer: 0
  m_StaticEditorFlags: 0
  m_IsActive: 1
--- !u!4 &3812876574508226176
Transform:
  m_ObjectHideFlags: 0
  m_CorrespondingSourceObject: {fileID: 0}
  m_PrefabInstance: {fileID: 0}
  m_PrefabAsset: {fileID: 0}
  m_GameObject: {fileID: 3812876574508226177}
  m_LocalRotation: {x: 0, y: 0, z: 0, w: 1}
  m_LocalPosition: {x: 0, y: 0, z: 0}
  m_LocalScale: {x: 1, y: 1, z: 1}
  m_ConstrainProportionsScale: 0
  m_Children:
  - {fileID: 7752665549655589134}
  m_Father: {fileID: 0}
  m_RootOrder: 0
  m_LocalEulerAnglesHint: {x: 0, y: 0, z: 0}
--- !u!114 &-460253711261700267
MonoBehaviour:
  m_ObjectHideFlags: 0
  m_CorrespondingSourceObject: {fileID: 0}
  m_PrefabInstance: {fileID: 0}
  m_PrefabAsset: {fileID: 0}
  m_GameObject: {fileID: 3812876574508226177}
  m_Enabled: 1
  m_EditorHideFlags: 0
  m_Script: {fileID: 11500000, guid: cbd3216210d189547b4a8dd8fae1682e, type: 3}
  m_Name: 
  m_EditorClassIdentifier: 
  _kitchenObj: {fileID: 11400000, guid: 4514f8e4eb27d434ea0c7787e764894e, type: 2}
--- !u!1001 &7790586617283749605
PrefabInstance:
  m_ObjectHideFlags: 0
  serializedVersion: 2
  m_Modification:
    serializedVersion: 2
    m_TransformParent: {fileID: 3812876574508226176}
    m_Modifications:
    - target: {fileID: -8679921383154817045, guid: 01e6e32335b88f244a146af71bb8d6ea, type: 3}
      propertyPath: m_RootOrder
      value: -1
      objectReference: {fileID: 0}
    - target: {fileID: -8679921383154817045, guid: 01e6e32335b88f244a146af71bb8d6ea, type: 3}
      propertyPath: m_LocalScale.x
      value: 1.54
      objectReference: {fileID: 0}
    - target: {fileID: -8679921383154817045, guid: 01e6e32335b88f244a146af71bb8d6ea, type: 3}
      propertyPath: m_LocalScale.y
      value: 2.562352
      objectReference: {fileID: 0}
    - target: {fileID: -8679921383154817045, guid: 01e6e32335b88f244a146af71bb8d6ea, type: 3}
      propertyPath: m_LocalScale.z
      value: 1.915056
      objectReference: {fileID: 0}
    - target: {fileID: -8679921383154817045, guid: 01e6e32335b88f244a146af71bb8d6ea, type: 3}
      propertyPath: m_LocalPosition.x
      value: 0
      objectReference: {fileID: 0}
    - target: {fileID: -8679921383154817045, guid: 01e6e32335b88f244a146af71bb8d6ea, type: 3}
      propertyPath: m_LocalPosition.y
      value: 0
      objectReference: {fileID: 0}
    - target: {fileID: -8679921383154817045, guid: 01e6e32335b88f244a146af71bb8d6ea, type: 3}
      propertyPath: m_LocalPosition.z
      value: 0
      objectReference: {fileID: 0}
    - target: {fileID: -8679921383154817045, guid: 01e6e32335b88f244a146af71bb8d6ea, type: 3}
      propertyPath: m_LocalRotation.w
      value: 0.91023654
      objectReference: {fileID: 0}
    - target: {fileID: -8679921383154817045, guid: 01e6e32335b88f244a146af71bb8d6ea, type: 3}
      propertyPath: m_LocalRotation.x
      value: 0.25341648
      objectReference: {fileID: 0}
    - target: {fileID: -8679921383154817045, guid: 01e6e32335b88f244a146af71bb8d6ea, type: 3}
      propertyPath: m_LocalRotation.y
      value: -0.3154911
      objectReference: {fileID: 0}
    - target: {fileID: -8679921383154817045, guid: 01e6e32335b88f244a146af71bb8d6ea, type: 3}
      propertyPath: m_LocalRotation.z
      value: 0.08783502
      objectReference: {fileID: 0}
    - target: {fileID: -8679921383154817045, guid: 01e6e32335b88f244a146af71bb8d6ea, type: 3}
      propertyPath: m_LocalEulerAnglesHint.x
      value: 0
      objectReference: {fileID: 0}
    - target: {fileID: -8679921383154817045, guid: 01e6e32335b88f244a146af71bb8d6ea, type: 3}
      propertyPath: m_LocalEulerAnglesHint.y
      value: 0
      objectReference: {fileID: 0}
    - target: {fileID: -8679921383154817045, guid: 01e6e32335b88f244a146af71bb8d6ea, type: 3}
      propertyPath: m_LocalEulerAnglesHint.z
      value: 0
      objectReference: {fileID: 0}
    - target: {fileID: -8679921383154817045, guid: 01e6e32335b88f244a146af71bb8d6ea, type: 3}
      propertyPath: m_ConstrainProportionsScale
      value: 1
      objectReference: {fileID: 0}
    - target: {fileID: -7511558181221131132, guid: 01e6e32335b88f244a146af71bb8d6ea, type: 3}
      propertyPath: m_Materials.Array.data[0]
      value: 
      objectReference: {fileID: 2100000, guid: f46454cbed06c8e4f8a0203bb4cd40ee, type: 2}
    - target: {fileID: 919132149155446097, guid: 01e6e32335b88f244a146af71bb8d6ea, type: 3}
      propertyPath: m_Name
      value: Lattuce
      objectReference: {fileID: 0}
    m_RemovedComponents: []
    m_AddedGameObjects: []
  m_SourcePrefab: {fileID: 100100000, guid: 01e6e32335b88f244a146af71bb8d6ea, type: 3}
--- !u!4 &7752665549655589134 stripped
Transform:
  m_CorrespondingSourceObject: {fileID: -8679921383154817045, guid: 01e6e32335b88f244a146af71bb8d6ea, type: 3}
  m_PrefabInstance: {fileID: 7790586617283749605}
  m_PrefabAsset: {fileID: 0}
