%YAML 1.1
%TAG !u! tag:unity3d.com,2011:
--- !u!1 &3812876574508226177
GameObject:
  m_ObjectHideFlags: 0
  m_CorrespondingSourceObject: {fileID: 0}
  m_PrefabInstance: {fileID: 0}
  m_PrefabAsset: {fileID: 0}
  serializedVersion: 6
  m_Component:
  - component: {fileID: 3812876574508226176}
  - component: {fileID: -1888032455896335422}
  m_Layer: 0
  m_Name: MeatPattyCooked
  m_TagString: Untagged
  m_Icon: {fileID: 0}
  m_NavMeshLayer: 0
  m_StaticEditorFlags: 0
  m_IsActive: 1
--- !u!4 &3812876574508226176
Transform:
  m_ObjectHideFlags: 0
  m_CorrespondingSourceObject: {fileID: 0}
  m_PrefabInstance: {fileID: 0}
  m_PrefabAsset: {fileID: 0}
  m_GameObject: {fileID: 3812876574508226177}
  m_LocalRotation: {x: 0, y: 0, z: 0, w: 1}
  m_LocalPosition: {x: 0, y: 0, z: 0}
  m_LocalScale: {x: 1, y: 1, z: 1}
  m_ConstrainProportionsScale: 0
  m_Children:
  - {fileID: 5357382415998007911}
  m_Father: {fileID: 0}
  m_RootOrder: 0
  m_LocalEulerAnglesHint: {x: 0, y: 0, z: 0}
--- !u!114 &-1888032455896335422
MonoBehaviour:
  m_ObjectHideFlags: 0
  m_CorrespondingSourceObject: {fileID: 0}
  m_PrefabInstance: {fileID: 0}
  m_PrefabAsset: {fileID: 0}
  m_GameObject: {fileID: 3812876574508226177}
  m_Enabled: 1
  m_EditorHideFlags: 0
  m_Script: {fileID: 11500000, guid: cbd3216210d189547b4a8dd8fae1682e, type: 3}
  m_Name: 
  m_EditorClassIdentifier: 
  _kitchenObj: {fileID: 11400000, guid: a3e553b2339fe714eb5ed93d34f110ea, type: 2}
--- !u!1001 &9129695738698444007
PrefabInstance:
  m_ObjectHideFlags: 0
  serializedVersion: 2
  m_Modification:
    serializedVersion: 2
    m_TransformParent: {fileID: 3812876574508226176}
    m_Modifications:
    - target: {fileID: 3812876574508226176, guid: e879ff1414d1dd64c9ad7b04bffdfaef, type: 3}
      propertyPath: m_RootOrder
      value: 0
      objectReference: {fileID: 0}
    - target: {fileID: 3812876574508226176, guid: e879ff1414d1dd64c9ad7b04bffdfaef, type: 3}
      propertyPath: m_LocalPosition.x
      value: 0
      objectReference: {fileID: 0}
    - target: {fileID: 3812876574508226176, guid: e879ff1414d1dd64c9ad7b04bffdfaef, type: 3}
      propertyPath: m_LocalPosition.y
      value: 0
      objectReference: {fileID: 0}
    - target: {fileID: 3812876574508226176, guid: e879ff1414d1dd64c9ad7b04bffdfaef, type: 3}
      propertyPath: m_LocalPosition.z
      value: 0
      objectReference: {fileID: 0}
    - target: {fileID: 3812876574508226176, guid: e879ff1414d1dd64c9ad7b04bffdfaef, type: 3}
      propertyPath: m_LocalRotation.w
      value: 1
      objectReference: {fileID: 0}
    - target: {fileID: 3812876574508226176, guid: e879ff1414d1dd64c9ad7b04bffdfaef, type: 3}
      propertyPath: m_LocalRotation.x
      value: 0
      objectReference: {fileID: 0}
    - target: {fileID: 3812876574508226176, guid: e879ff1414d1dd64c9ad7b04bffdfaef, type: 3}
      propertyPath: m_LocalRotation.y
      value: 0
      objectReference: {fileID: 0}
    - target: {fileID: 3812876574508226176, guid: e879ff1414d1dd64c9ad7b04bffdfaef, type: 3}
      propertyPath: m_LocalRotation.z
      value: 0
      objectReference: {fileID: 0}
    - target: {fileID: 3812876574508226176, guid: e879ff1414d1dd64c9ad7b04bffdfaef, type: 3}
      propertyPath: m_LocalEulerAnglesHint.x
      value: 0
      objectReference: {fileID: 0}
    - target: {fileID: 3812876574508226176, guid: e879ff1414d1dd64c9ad7b04bffdfaef, type: 3}
      propertyPath: m_LocalEulerAnglesHint.y
      value: 0
      objectReference: {fileID: 0}
    - target: {fileID: 3812876574508226176, guid: e879ff1414d1dd64c9ad7b04bffdfaef, type: 3}
      propertyPath: m_LocalEulerAnglesHint.z
      value: 0
      objectReference: {fileID: 0}
    - target: {fileID: 3812876574508226177, guid: e879ff1414d1dd64c9ad7b04bffdfaef, type: 3}
      propertyPath: m_Name
      value: MeatPattyCooked_Visual
      objectReference: {fileID: 0}
    m_RemovedComponents: []
    m_AddedGameObjects: []
  m_SourcePrefab: {fileID: 100100000, guid: e879ff1414d1dd64c9ad7b04bffdfaef, type: 3}
--- !u!4 &5357382415998007911 stripped
Transform:
  m_CorrespondingSourceObject: {fileID: 3812876574508226176, guid: e879ff1414d1dd64c9ad7b04bffdfaef, type: 3}
  m_PrefabInstance: {fileID: 9129695738698444007}
  m_PrefabAsset: {fileID: 0}
